Functional Programming
…
---
# Fitting and plotting multiple models

The powerful functional programming tools within `purrr` can be combined with the ability of the `tibble` style dataframes to include nested list-columns. *(Example based on Healy, Data Visualisation)*.

```r
library(DT)
nest_df <- gapminder %>% filter(continent!="Oceania") %>%
  group_by(continent, year) %>% nest()
nest_df
```

```
## # A tibble: 48 x 3
## # Groups:   continent, year [48]
##    continent  year data             
##    <fct>     <int> <list>           
##  1 Asia       1952 <tibble [33 x 4]>
##  2 Asia       1957 <tibble [33 x 4]>
##  3 Asia       1962 <tibble [33 x 4]>
##  4 Asia       1967 <tibble [33 x 4]>
##  5 Asia       1972 <tibble [33 x 4]>
##  6 Asia       1977 <tibble [33 x 4]>
##  7 Asia       1982 <tibble [33 x 4]>
##  8 Asia       1987 <tibble [33 x 4]>
##  9 Asia       1992 <tibble [33 x 4]>
## 10 Asia       1997 <tibble [33 x 4]>
## # ... with 38 more rows
```
…
